<?xml version="1.0" encoding="iso-8859-1"?>
<!-- Generator: Adobe Illustrator 18.1.1, SVG Export Plug-In . SVG Version: 6.00 Build 0)  -->
<svg version="1.1" id="Capa_1" xmlns="http://www.w3.org/2000/svg" xmlns:xlink="http://www.w3.org/1999/xlink" x="0px" y="0px"
	 viewBox="-190 -160 840 840" width="512px" height="512px" xml:space="preserve">
<g>
	<path style="fill:#feb960;" d="M487.75,78.125c-13-13-33-13-46,0l-272,272l-114-113c-13-13-33-13-46,0s-13,33,0,46l137,136
		c6,6,15,10,23,10s17-4,23-10l295-294C500.75,112.125,500.75,91.125,487.75,78.125z"/>
<circle cx="230" cy="260" r="400" fill="none" stroke-width="40" stroke="#feb960" />
</g>
<g>
</g>
<g>
</g>
<g>
</g>
<g>
</g>
<g>
</g>
<g>
</g>
<g>
</g>
<g>
</g>
<g>
</g>
<g>
</g>
<g>
</g>
<g>
</g>
<g>
</g>
<g>
</g>
<g>
</g>
</svg>
