<?xml version="1.0" encoding="utf-8"?>
<!-- Generator: Adobe Illustrator 17.0.0, SVG Export Plug-In . SVG Version: 6.00 Build 0)  -->
<!DOCTYPE svg PUBLIC "-//W3C//DTD SVG 1.1//EN" "http://www.w3.org/Graphics/SVG/1.1/DTD/svg11.dtd">
<svg version="1.1" id="Слой_1" xmlns="http://www.w3.org/2000/svg" xmlns:xlink="http://www.w3.org/1999/xlink" x="0px" y="0px"
	 width="256px" height="256px" viewBox="0 0 256 256" enable-background="new 0 0 256 256" xml:space="preserve">
<g>
	<g>
		<g>
			<path fill="#FFF" d="M86.877,228.758c-22.933,0-49.472-5.888-78.827-22.368c-2.219-1.248-3.243-3.883-2.453-6.293
				s3.168-4,5.685-3.648c19.349,2.219,40.48-2.315,56.267-11.584c-18.08-4.245-32.693-15.989-40.405-33.045
				c-0.864-1.909-0.533-4.149,0.853-5.717c1.387-1.579,3.563-2.187,5.568-1.579c2.325,0.715,4.64,1.205,6.869,1.472
				c-13.728-8.192-28.427-23.872-28.427-47.371c0-2.059,1.184-3.936,3.04-4.821c1.856-0.875,4.064-0.629,5.643,0.672
				c1.707,1.387,3.531,2.549,5.419,3.467c-3.925-5.333-7.328-11.915-9.269-19.381c-3.541-13.675-1.483-27.541,5.941-40.064
				c0.896-1.515,2.475-2.475,4.224-2.603c1.664-0.107,3.435,0.619,4.533,1.995c15.701,19.616,43.605,43.317,88.469,47.637
				c-0.832-14.197,3.435-37.461,23.04-48.907c24.117-14.08,47.317-12.267,67.253,5.195c8.832-1.963,22.773-8.021,25.664-10.037
				c1.835-1.28,4.277-1.291,6.112,0c1.835,1.291,2.677,3.573,2.101,5.739c-1.333,5.024-4.352,10.613-8.107,15.605
				c2.976-0.885,5.483-1.781,6.816-2.464c2.133-1.099,4.747-0.64,6.379,1.131c1.632,1.771,1.856,4.427,0.576,6.453
				c-6.272,9.92-16.416,19.157-23.189,24.171c3.659,45.067-22.677,95.424-64.949,123.488
				C146.024,216.299,120.253,228.758,86.877,228.758z M33.597,206.966c57.077,23.413,100.299,4.565,122.197-9.973
				c40.064-26.603,64.715-74.539,59.947-116.576c-0.224-2.005,0.683-3.957,2.368-5.056c2.869-1.888,7.253-5.355,11.669-9.653
				c-4.341,0.939-8.555,1.568-11.616,1.579c-2.944-0.352-4.768-1.803-5.248-4.32c-0.491-2.517,0.885-5.024,3.264-5.963
				c3.019-1.205,7.093-4.843,10.613-9.301c-6.037,2.336-12.565,4.405-17.365,5.099c-1.589,0.245-3.221-0.288-4.405-1.397
				c-16.832-15.808-35.861-17.685-56.597-5.589c-18.613,10.88-19.029,36.235-17.067,44.245c0.405,1.643,0,3.371-1.077,4.672
				s-2.72,1.995-4.395,1.931C78.195,94.144,47.219,71.638,28.584,50.88c-3.819,9.931-3.008,18.837-1.408,25.003
				c3.136,12.085,11.029,21.355,17.024,24.853c1.92,1.109,2.944,3.307,2.581,5.483c-0.363,2.187-2.037,3.925-4.213,4.352
				c-6.069,1.205-12.608,0.469-18.688-1.973c5.557,22.24,28.683,32.715,35.189,33.44c2.123,0.235,3.893,1.707,4.523,3.744
				c0.619,2.037-0.032,4.256-1.664,5.632c-4.661,3.936-11.637,5.835-19.499,5.44c8.917,11.883,22.741,18.709,39.264,19.072
				c2.187,0.053,4.128,1.429,4.885,3.488c0.757,2.048,0.192,4.363-1.44,5.813C72.04,196.96,53.245,204.672,33.597,206.966z"/>
		</g>
	</g>
	<g>
	</g>
	<g>
	</g>
	<g>
	</g>
	<g>
	</g>
	<g>
	</g>
	<g>
	</g>
	<g>
	</g>
	<g>
	</g>
	<g>
	</g>
	<g>
	</g>
	<g>
	</g>
	<g>
	</g>
	<g>
	</g>
	<g>
	</g>
	<g>
	</g>
</g>
</svg>
